tracefile.vcd
$date
     Jul 13, 2024       15:51:36
$end

$version
 SystemC 2.3.4-Accellera --- Jun 25 2024 09:36:03
$end

$timescale
     1 ns
$end

$scope module SystemC $end
$var wire    1  aaaaa  clock       $end
$var wire    1  aaaab  requestToL1       $end
$var wire   32  aaaac  inputDataToL1 [31:0]  $end
$var wire   32  aaaad  addressToL1 [31:0]  $end
$var wire    1  aaaae  rwToL1       $end
$var wire    1  aaaaf  readyFromL1       $end
$var wire   32  aaaag  dataFromL1 [31:0]  $end
$var wire    1  aaaah  readyFromL2ToL1       $end
$var wire   32  aaaai  dataFromL2ToL1 [31:0]  $end
$var wire    1  aaaaj  requestFromL1ToL2       $end
$var wire   32  aaaak  dataFromL1ToL2 [31:0]  $end
$var wire   32  aaaal  addressFromL1ToL2 [31:0]  $end
$var wire    1  aaaam  rwFromL1ToL2       $end
$var wire    1  aaaan  readyFromMemToL2       $end
$var wire   32  aaaao  dataFromMemToL2 [31:0]  $end
$var wire    1  aaaap  requestFromL2ToMem       $end
$var wire    1  aaaaq  rwFromL2ToMem       $end
$var wire   32  aaaar  addressFromL2ToMem [31:0]  $end
$var wire   32  aaaas  dataFromL2ToMem [31:0]  $end
$upscope $end
$enddefinitions  $end

$comment
All initial values are dumped below at time 0 sec = 0 timescale units.
$end

$dumpvars
1aaaaa
0aaaab
b0 aaaac
b0 aaaad
0aaaae
0aaaaf
b0 aaaag
0aaaah
b0 aaaai
0aaaaj
b0 aaaak
b0 aaaal
0aaaam
0aaaan
b0 aaaao
0aaaap
0aaaaq
b0 aaaar
b0 aaaas
$end

#1
0aaaaa

#2
1aaaaa
1aaaaf
1aaaah
1aaaan

#3
0aaaaa

#4
1aaaaa
1aaaab
b10001000100010001000100010001 aaaac
1aaaae
0aaaaf

#5
0aaaaa
0aaaab

#6
1aaaaa

#7
0aaaaa

#8
1aaaaa

#9
0aaaaa

#10
1aaaaa

#11
0aaaaa

#12
1aaaaa

#13
0aaaaa

#14
1aaaaa
0aaaah
1aaaaj
1aaaam

#15
0aaaaa

#16
1aaaaa
1aaaaf
0aaaaj

#17
0aaaaa

#18
1aaaaa
1aaaab
b100010001000100010001000100010 aaaac
b100000 aaaad
0aaaaf

#19
0aaaaa
0aaaab

#20
1aaaaa

#21
0aaaaa

#22
1aaaaa

#23
0aaaaa

#24
1aaaaa

#25
0aaaaa

#26
1aaaaa

#27
0aaaaa

#28
1aaaaa

#29
0aaaaa

#30
1aaaaa

#31
0aaaaa

#32
1aaaaa

#33
0aaaaa

#34
1aaaaa

#35
0aaaaa

#36
1aaaaa

#37
0aaaaa

#38
1aaaaa

#39
0aaaaa

#40
1aaaaa

#41
0aaaaa

#42
1aaaaa

#43
0aaaaa

#44
1aaaaa
0aaaan
1aaaap
b100 aaaar

#45
0aaaaa

#46
1aaaaa
0aaaap

