tracefile.vcd
$date
     Jul 13, 2024       17:36:54
$end

$version
 SystemC 2.3.4-Accellera --- Jun 25 2024 09:36:03
$end

$timescale
     1 ns
$end

$scope module SystemC $end
$var wire    1  aaaaa  clock       $end
$var wire    1  aaaab  requestToL1       $end
$var wire   32  aaaac  inputDataToL1 [31:0]  $end
$var wire   32  aaaad  addressToL1 [31:0]  $end
$var wire    1  aaaae  rwToL1       $end
$var wire    1  aaaaf  readyFromL1       $end
$var wire   32  aaaag  dataFromL1 [31:0]  $end
$var wire    1  aaaah  readyFromL2ToL1       $end
$var wire   32  aaaai  dataFromL2ToL1 [31:0]  $end
$var wire    1  aaaaj  requestFromL1ToL2       $end
$var wire   32  aaaak  dataFromL1ToL2 [31:0]  $end
$var wire   32  aaaal  addressFromL1ToL2 [31:0]  $end
$var wire    1  aaaam  rwFromL1ToL2       $end
$var wire    1  aaaan  readyFromMemToL2       $end
$var wire   32  aaaao  dataFromMemToL2 [31:0]  $end
$var wire    1  aaaap  requestFromL2ToMem       $end
$var wire    1  aaaaq  rwFromL2ToMem       $end
$var wire   32  aaaar  addressFromL2ToMem [31:0]  $end
$var wire   32  aaaas  dataFromL2ToMem [31:0]  $end
$upscope $end
$enddefinitions  $end

$comment
All initial values are dumped below at time 0 sec = 0 timescale units.
$end

$dumpvars
1aaaaa
0aaaab
b0 aaaac
b0 aaaad
0aaaae
0aaaaf
b0 aaaag
0aaaah
b0 aaaai
0aaaaj
b0 aaaak
b0 aaaal
0aaaam
0aaaan
b0 aaaao
0aaaap
0aaaaq
b0 aaaar
b0 aaaas
$end

#1
0aaaaa

#2
1aaaaa
1aaaaf
1aaaah
1aaaan

#3
0aaaaa

#4
1aaaaa
1aaaab
b10001000100010001000100010001 aaaac
1aaaae
0aaaaf

#5
0aaaaa
0aaaab

#6
1aaaaa
0aaaah

#7
0aaaaa

#8
1aaaaa

#9
0aaaaa

#10
1aaaaa

#11
0aaaaa

#12
1aaaaa
0aaaan

#13
0aaaaa

#14
1aaaaa

#15
0aaaaa

#16
1aaaaa

#17
0aaaaa

#18
1aaaaa

#19
0aaaaa

#20
1aaaaa

#21
0aaaaa

#22
1aaaaa

#23
0aaaaa

#24
1aaaaa

#25
0aaaaa

#26
1aaaaa

#27
0aaaaa

#28
1aaaaa

#29
0aaaaa

#30
1aaaaa

#31
0aaaaa

#32
1aaaaa
1aaaap
b100 aaaar

#33
0aaaaa

#34
1aaaaa
0aaaap

#35
0aaaaa

#36
1aaaaa

#37
0aaaaa

#38
1aaaaa

#39
0aaaaa

#40
1aaaaa

#41
0aaaaa

#42
1aaaaa

#43
0aaaaa

#44
1aaaaa

#45
0aaaaa

#46
1aaaaa

#47
0aaaaa

#48
1aaaaa

#49
0aaaaa

#50
1aaaaa

#51
0aaaaa

#52
1aaaaa
1aaaap
b1000 aaaar

#53
0aaaaa

#54
1aaaaa
0aaaap

#55
0aaaaa

#56
1aaaaa

#57
0aaaaa

#58
1aaaaa

#59
0aaaaa

#60
1aaaaa

#61
0aaaaa

#62
1aaaaa

#63
0aaaaa

#64
1aaaaa

#65
0aaaaa

#66
1aaaaa

#67
0aaaaa

#68
1aaaaa

#69
0aaaaa

#70
1aaaaa

#71
0aaaaa

#72
1aaaaa
1aaaap
b1100 aaaar

#73
0aaaaa

#74
1aaaaa
0aaaap

#75
0aaaaa

#76
1aaaaa

#77
0aaaaa

#78
1aaaaa

#79
0aaaaa

#80
1aaaaa

#81
0aaaaa

#82
1aaaaa

#83
0aaaaa

#84
1aaaaa

#85
0aaaaa

#86
1aaaaa

#87
0aaaaa

#88
1aaaaa

#89
0aaaaa

#90
1aaaaa

#91
0aaaaa

#92
1aaaaa
1aaaah
1aaaan

#93
0aaaaa

#94
1aaaaa
0aaaah
1aaaaj
1aaaam

#95
0aaaaa

#96
1aaaaa
0aaaaj

#97
0aaaaa

#98
1aaaaa
1aaaaf

#99
0aaaaa

#100
1aaaaa
1aaaab
b100010001000100010001000100010 aaaac
b10000 aaaad
0aaaaf
0aaaan
1aaaaq
b0 aaaar
b10001000100010001000100010001 aaaas

#101
0aaaaa
0aaaab

#102
1aaaaa

#103
0aaaaa

#104
1aaaaa

#105
0aaaaa

#106
1aaaaa

#107
0aaaaa

#108
1aaaaa

#109
0aaaaa

#110
1aaaaa

#111
0aaaaa

#112
1aaaaa

#113
0aaaaa

#114
1aaaaa

#115
0aaaaa

#116
1aaaaa

#117
0aaaaa

#118
1aaaaa

#119
0aaaaa

#120
1aaaaa
1aaaap
b100 aaaar
b0 aaaas

#121
0aaaaa

#122
1aaaaa
0aaaap

#123
0aaaaa

#124
1aaaaa

#125
0aaaaa

#126
1aaaaa

#127
0aaaaa

#128
1aaaaa

#129
0aaaaa

#130
1aaaaa

#131
0aaaaa

#132
1aaaaa

#133
0aaaaa

#134
1aaaaa

#135
0aaaaa

#136
1aaaaa

#137
0aaaaa

#138
1aaaaa

#139
0aaaaa

#140
1aaaaa
1aaaap
b1000 aaaar

#141
0aaaaa

#142
1aaaaa
0aaaap

#143
0aaaaa

#144
1aaaaa

#145
0aaaaa

#146
1aaaaa

#147
0aaaaa

#148
1aaaaa

#149
0aaaaa

#150
1aaaaa

#151
0aaaaa

#152
1aaaaa

#153
0aaaaa

#154
1aaaaa

#155
0aaaaa

#156
1aaaaa

#157
0aaaaa

#158
1aaaaa

#159
0aaaaa

#160
1aaaaa
1aaaap
b1100 aaaar

#161
0aaaaa

#162
1aaaaa
0aaaap

#163
0aaaaa

#164
1aaaaa
1aaaah

#165
0aaaaa

#166
1aaaaa
0aaaah
1aaaaj
b10000 aaaal
0aaaam

#167
0aaaaa

#168
1aaaaa
0aaaaj

#169
0aaaaa

#170
1aaaaa

#171
0aaaaa

#172
1aaaaa

#173
0aaaaa

#174
1aaaaa

#175
0aaaaa

#176
1aaaaa

#177
0aaaaa

#178
1aaaaa

#179
0aaaaa

#180
1aaaaa
1aaaap
0aaaaq
b10000 aaaar

#181
0aaaaa

#182
1aaaaa
0aaaap

#183
0aaaaa

#184
1aaaaa

#185
0aaaaa

#186
1aaaaa

#187
0aaaaa

#188
1aaaaa

#189
0aaaaa

#190
1aaaaa

#191
0aaaaa

#192
1aaaaa

#193
0aaaaa

#194
1aaaaa

#195
0aaaaa

#196
1aaaaa

#197
0aaaaa

#198
1aaaaa

#199
0aaaaa

#200
1aaaaa
1aaaap
b10100 aaaar

#201
0aaaaa

#202
1aaaaa
0aaaap

#203
0aaaaa

#204
1aaaaa

#205
0aaaaa

#206
1aaaaa

#207
0aaaaa

#208
1aaaaa

#209
0aaaaa

#210
1aaaaa

#211
0aaaaa

#212
1aaaaa

#213
0aaaaa

#214
1aaaaa

#215
0aaaaa

#216
1aaaaa

#217
0aaaaa

#218
1aaaaa

#219
0aaaaa

#220
1aaaaa
1aaaap
b11000 aaaar

#221
0aaaaa

#222
1aaaaa
0aaaap

#223
0aaaaa

#224
1aaaaa

#225
0aaaaa

#226
1aaaaa

#227
0aaaaa

#228
1aaaaa

#229
0aaaaa

#230
1aaaaa

#231
0aaaaa

#232
1aaaaa

#233
0aaaaa

#234
1aaaaa

#235
0aaaaa

#236
1aaaaa

#237
0aaaaa

#238
1aaaaa

#239
0aaaaa

#240
1aaaaa
1aaaap
b11100 aaaar

#241
0aaaaa

#242
1aaaaa
0aaaap

#243
0aaaaa

#244
1aaaaa

#245
0aaaaa

#246
1aaaaa

#247
0aaaaa

#248
1aaaaa

#249
0aaaaa

#250
1aaaaa

#251
0aaaaa

#252
1aaaaa

#253
0aaaaa

#254
1aaaaa

#255
0aaaaa

#256
1aaaaa

#257
0aaaaa

#258
1aaaaa

#259
0aaaaa

#260
1aaaaa
1aaaah
b1 aaaai
1aaaan

#261
0aaaaa

#262
1aaaaa
0aaaah
1aaaaj
b1 aaaak
1aaaam

#263
0aaaaa

#264
1aaaaa
0aaaaj

#265
0aaaaa

#266
1aaaaa
1aaaaf

#267
0aaaaa

#268
1aaaaa
1aaaab
b110011001100110011001100110011 aaaac
b100000 aaaad
0aaaaf
0aaaan
1aaaaq
b10000 aaaar
b100010001000100010001000100010 aaaas

#269
0aaaaa
0aaaab

#270
1aaaaa

#271
0aaaaa

#272
1aaaaa

#273
0aaaaa

#274
1aaaaa

#275
0aaaaa

#276
1aaaaa

#277
0aaaaa

#278
1aaaaa

#279
0aaaaa

#280
1aaaaa

#281
0aaaaa

#282
1aaaaa

#283
0aaaaa

#284
1aaaaa

#285
0aaaaa

#286
1aaaaa

#287
0aaaaa

#288
1aaaaa
1aaaap
b10100 aaaar
b0 aaaas

#289
0aaaaa

#290
1aaaaa
0aaaap

#291
0aaaaa

#292
1aaaaa

#293
0aaaaa

#294
1aaaaa

#295
0aaaaa

#296
1aaaaa

#297
0aaaaa

#298
1aaaaa

#299
0aaaaa

#300
1aaaaa

#301
0aaaaa

#302
1aaaaa

#303
0aaaaa

#304
1aaaaa

#305
0aaaaa

#306
1aaaaa

#307
0aaaaa

#308
1aaaaa
1aaaap
b11000 aaaar

#309
0aaaaa

#310
1aaaaa
0aaaap

#311
0aaaaa

#312
1aaaaa

#313
0aaaaa

#314
1aaaaa

#315
0aaaaa

#316
1aaaaa

#317
0aaaaa

#318
1aaaaa

#319
0aaaaa

#320
1aaaaa

#321
0aaaaa

#322
1aaaaa

#323
0aaaaa

#324
1aaaaa

#325
0aaaaa

#326
1aaaaa

#327
0aaaaa

#328
1aaaaa
1aaaap
b11100 aaaar

#329
0aaaaa

#330
1aaaaa
0aaaap

#331
0aaaaa

#332
1aaaaa
1aaaah

#333
0aaaaa

#334
1aaaaa
0aaaah
1aaaaj
b100000 aaaal
0aaaam

#335
0aaaaa

#336
1aaaaa
0aaaaj

#337
0aaaaa

#338
1aaaaa

#339
0aaaaa

#340
1aaaaa

#341
0aaaaa

#342
1aaaaa

#343
0aaaaa

#344
1aaaaa

#345
0aaaaa

#346
1aaaaa

#347
0aaaaa

#348
1aaaaa
1aaaap
0aaaaq
b100000 aaaar

#349
0aaaaa

#350
1aaaaa
0aaaap

#351
0aaaaa

#352
1aaaaa

#353
0aaaaa

#354
1aaaaa

#355
0aaaaa

#356
1aaaaa

#357
0aaaaa

#358
1aaaaa

#359
0aaaaa

#360
1aaaaa

#361
0aaaaa

#362
1aaaaa

#363
0aaaaa

#364
1aaaaa

#365
0aaaaa

#366
1aaaaa

#367
0aaaaa

#368
1aaaaa
1aaaap
b100100 aaaar

#369
0aaaaa

#370
1aaaaa
0aaaap

#371
0aaaaa

#372
1aaaaa

#373
0aaaaa

#374
1aaaaa

#375
0aaaaa

#376
1aaaaa

#377
0aaaaa

#378
1aaaaa

#379
0aaaaa

#380
1aaaaa

#381
0aaaaa

#382
1aaaaa

#383
0aaaaa

#384
1aaaaa

#385
0aaaaa

#386
1aaaaa

#387
0aaaaa

#388
1aaaaa
1aaaap
b101000 aaaar

#389
0aaaaa

#390
1aaaaa
0aaaap

#391
0aaaaa

#392
1aaaaa

#393
0aaaaa

#394
1aaaaa

#395
0aaaaa

#396
1aaaaa

#397
0aaaaa

#398
1aaaaa

#399
0aaaaa

#400
1aaaaa

#401
0aaaaa

#402
1aaaaa

#403
0aaaaa

#404
1aaaaa

#405
0aaaaa

#406
1aaaaa

#407
0aaaaa

#408
1aaaaa
1aaaap
b101100 aaaar

#409
0aaaaa

#410
1aaaaa
0aaaap

#411
0aaaaa

#412
1aaaaa

#413
0aaaaa

#414
1aaaaa

#415
0aaaaa

#416
1aaaaa

#417
0aaaaa

#418
1aaaaa

#419
0aaaaa

#420
1aaaaa

#421
0aaaaa

#422
1aaaaa

#423
0aaaaa

#424
1aaaaa

#425
0aaaaa

#426
1aaaaa

#427
0aaaaa

#428
1aaaaa
1aaaah
b10 aaaai
1aaaan

#429
0aaaaa

#430
1aaaaa
0aaaah
1aaaaj
b10 aaaak
1aaaam

#431
0aaaaa

#432
1aaaaa
0aaaaj

#433
0aaaaa

#434
1aaaaa
1aaaaf

#435
0aaaaa

#436
1aaaaa
1aaaab
b1000100010001000100010001000100 aaaac
b100001 aaaad
0aaaaf
0aaaan
1aaaaq
b100000 aaaar
b110011001100110011001100110011 aaaas

#437
0aaaaa
0aaaab

#438
1aaaaa

#439
0aaaaa

#440
1aaaaa

#441
0aaaaa

#442
1aaaaa

#443
0aaaaa

#444
1aaaaa

#445
0aaaaa

#446
1aaaaa

#447
0aaaaa

#448
1aaaaa

#449
0aaaaa

#450
1aaaaa

#451
0aaaaa

#452
1aaaaa

#453
0aaaaa

#454
1aaaaa

#455
0aaaaa

#456
1aaaaa
1aaaap
b100100 aaaar
b0 aaaas

#457
0aaaaa

#458
1aaaaa
0aaaap

#459
0aaaaa

#460
1aaaaa

#461
0aaaaa

#462
1aaaaa

#463
0aaaaa

#464
1aaaaa

#465
0aaaaa

#466
1aaaaa

#467
0aaaaa

#468
1aaaaa

#469
0aaaaa

#470
1aaaaa

#471
0aaaaa

#472
1aaaaa

#473
0aaaaa

#474
1aaaaa

#475
0aaaaa

#476
1aaaaa
1aaaap
b101000 aaaar

#477
0aaaaa

#478
1aaaaa
0aaaap

#479
0aaaaa

#480
1aaaaa

#481
0aaaaa

#482
1aaaaa

#483
0aaaaa

#484
1aaaaa

#485
0aaaaa

#486
1aaaaa

#487
0aaaaa

#488
1aaaaa

#489
0aaaaa

#490
1aaaaa

#491
0aaaaa

#492
1aaaaa

#493
0aaaaa

#494
1aaaaa

#495
0aaaaa

#496
1aaaaa
1aaaap
b101100 aaaar

#497
0aaaaa

#498
1aaaaa
0aaaap

#499
0aaaaa

#500
1aaaaa
1aaaah

#501
0aaaaa

#502
1aaaaa
0aaaah
1aaaaj
b100001 aaaal

#503
0aaaaa

#504
1aaaaa
0aaaaj

#505
0aaaaa

#506
1aaaaa
1aaaaf

#507
0aaaaa

#508
1aaaaa
1aaaab
b0 aaaac
b10011 aaaad
0aaaae
0aaaaf

#509
0aaaaa
0aaaab

#510
1aaaaa
1aaaaf
b100010000000000000000000000000 aaaag

#511
0aaaaa

#512
1aaaaa
1aaaab
b100001 aaaad
0aaaaf

#513
0aaaaa
0aaaab

#514
1aaaaa
1aaaaf
b1000100010001000100010001000100 aaaag

#515
0aaaaa

#516
1aaaaa
1aaaab
b100010001000100010001000100010 aaaac
b10011 aaaad
1aaaae
0aaaaf
1aaaap
b100000 aaaar
b1000100010001000100010000110011 aaaas

#517
0aaaaa
0aaaab

#518
1aaaaa
0aaaap

#519
0aaaaa

#520
1aaaaa

#521
0aaaaa

#522
1aaaaa

#523
0aaaaa

#524
1aaaaa

#525
0aaaaa

#526
1aaaaa

#527
0aaaaa

#528
1aaaaa

#529
0aaaaa

#530
1aaaaa

#531
0aaaaa

#532
1aaaaa

#533
0aaaaa

#534
1aaaaa

#535
0aaaaa

#536
1aaaaa
1aaaap
b100100 aaaar
b1000100 aaaas

#537
0aaaaa

#538
1aaaaa
0aaaap

#539
0aaaaa

#540
1aaaaa

#541
0aaaaa

#542
1aaaaa

#543
0aaaaa

#544
1aaaaa

#545
0aaaaa

#546
1aaaaa

#547
0aaaaa

#548
1aaaaa

#549
0aaaaa

#550
1aaaaa

#551
0aaaaa

#552
1aaaaa

#553
0aaaaa

#554
1aaaaa

#555
0aaaaa

#556
1aaaaa
1aaaap
b101000 aaaar
b0 aaaas

#557
0aaaaa

#558
1aaaaa
0aaaap

#559
0aaaaa

#560
1aaaaa

#561
0aaaaa

#562
1aaaaa

#563
0aaaaa

#564
1aaaaa

#565
0aaaaa

#566
1aaaaa

#567
0aaaaa

#568
1aaaaa

#569
0aaaaa

#570
1aaaaa

#571
0aaaaa

#572
1aaaaa

#573
0aaaaa

#574
1aaaaa

#575
0aaaaa

#576
1aaaaa
1aaaap
b101100 aaaar

#577
0aaaaa

#578
1aaaaa
0aaaap

#579
0aaaaa

#580
1aaaaa
1aaaah

#581
0aaaaa

#582
1aaaaa
0aaaah
1aaaaj
b1 aaaak
b10011 aaaal

#583
0aaaaa

#584
1aaaaa
0aaaaj

#585
0aaaaa

#586
1aaaaa
1aaaaf

#587
0aaaaa

#588
1aaaaa
1aaaab
b10011001100110011001100110011001 aaaac
b100011 aaaad
0aaaaf

#589
0aaaaa
0aaaab

#590
1aaaaa

#591
0aaaaa

#592
1aaaaa

#593
0aaaaa

#594
1aaaaa

#595
0aaaaa

#596
1aaaaa
1aaaap
b10000 aaaar
b100010001000100010001000100010 aaaas

#597
0aaaaa

#598
1aaaaa
0aaaap

#599
0aaaaa

#600
1aaaaa

#601
0aaaaa

#602
1aaaaa

#603
0aaaaa

#604
1aaaaa

#605
0aaaaa

#606
1aaaaa

#607
0aaaaa

#608
1aaaaa

#609
0aaaaa

#610
1aaaaa

#611
0aaaaa

#612
1aaaaa

#613
0aaaaa

#614
1aaaaa

#615
0aaaaa

#616
1aaaaa
1aaaap
b10100 aaaar
b1000100010001000100010 aaaas

#617
0aaaaa

#618
1aaaaa
0aaaap

#619
0aaaaa

#620
1aaaaa

#621
0aaaaa

#622
1aaaaa

#623
0aaaaa

#624
1aaaaa

#625
0aaaaa

#626
1aaaaa

#627
0aaaaa

#628
1aaaaa

#629
0aaaaa

#630
1aaaaa

#631
0aaaaa

#632
1aaaaa

#633
0aaaaa

#634
1aaaaa

#635
0aaaaa

#636
1aaaaa
1aaaap
b11000 aaaar
b0 aaaas

#637
0aaaaa

#638
1aaaaa
0aaaap

#639
0aaaaa

#640
1aaaaa

#641
0aaaaa

#642
1aaaaa

#643
0aaaaa

#644
1aaaaa

#645
0aaaaa

#646
1aaaaa

#647
0aaaaa

#648
1aaaaa

#649
0aaaaa

#650
1aaaaa

#651
0aaaaa

#652
1aaaaa

#653
0aaaaa

#654
1aaaaa

#655
0aaaaa

#656
1aaaaa
1aaaap
b11100 aaaar

#657
0aaaaa

#658
1aaaaa
0aaaap

#659
0aaaaa

#660
1aaaaa
1aaaah

#661
0aaaaa

#662
1aaaaa
0aaaah
1aaaaj
b10 aaaak
b100011 aaaal

#663
0aaaaa

#664
1aaaaa
0aaaaj

#665
0aaaaa

#666
1aaaaa
1aaaaf

#667
0aaaaa

#668
1aaaaa
1aaaab
b10001000100010001000100010001 aaaac
b1 aaaad
0aaaaf

#669
0aaaaa
0aaaab

#670
1aaaaa

#671
0aaaaa

#672
1aaaaa

#673
0aaaaa

#674
1aaaaa

#675
0aaaaa

#676
1aaaaa
1aaaap
b100000 aaaar
b10011001010001000100010000110011 aaaas

#677
0aaaaa

#678
1aaaaa
0aaaap

#679
0aaaaa

#680
1aaaaa

#681
0aaaaa

#682
1aaaaa

#683
0aaaaa

#684
1aaaaa

#685
0aaaaa

#686
1aaaaa

#687
0aaaaa

#688
1aaaaa

#689
0aaaaa

#690
1aaaaa

#691
0aaaaa

#692
1aaaaa

#693
0aaaaa

#694
1aaaaa

#695
0aaaaa

#696
1aaaaa
1aaaap
b100100 aaaar
b100110011001100110011001 aaaas

#697
0aaaaa

#698
1aaaaa
0aaaap

#699
0aaaaa

#700
1aaaaa

#701
0aaaaa

#702
1aaaaa

#703
0aaaaa

#704
1aaaaa

#705
0aaaaa

#706
1aaaaa

#707
0aaaaa

#708
1aaaaa

#709
0aaaaa

#710
1aaaaa

#711
0aaaaa

#712
1aaaaa

#713
0aaaaa

#714
1aaaaa

#715
0aaaaa

#716
1aaaaa
1aaaap
b101000 aaaar
b0 aaaas

#717
0aaaaa

#718
1aaaaa
0aaaap

#719
0aaaaa

#720
1aaaaa

#721
0aaaaa

#722
1aaaaa

#723
0aaaaa

#724
1aaaaa

#725
0aaaaa

#726
1aaaaa

#727
0aaaaa

#728
1aaaaa

#729
0aaaaa

#730
1aaaaa

#731
0aaaaa

#732
1aaaaa

#733
0aaaaa

#734
1aaaaa

#735
0aaaaa

#736
1aaaaa
1aaaap
b101100 aaaar

#737
0aaaaa

#738
1aaaaa
0aaaap

#739
0aaaaa

#740
1aaaaa
1aaaah

#741
0aaaaa

#742
1aaaaa
0aaaah
1aaaaj
b0 aaaak
b1 aaaal

#743
0aaaaa

#744
1aaaaa
0aaaaj

#745
0aaaaa

#746
1aaaaa
1aaaaf

#747
0aaaaa

#748
1aaaaa
1aaaab
b0 aaaac
b100011 aaaad
0aaaae
0aaaaf

#749
0aaaaa
0aaaab

#750
1aaaaa
1aaaaf
b10011001100110011001100110011001 aaaag

#751
0aaaaa

#752
1aaaaa
1aaaab
0aaaaf

#753
0aaaaa
0aaaab

#754
1aaaaa
1aaaaf

#755
0aaaaa

#756
1aaaaa
1aaaab
b10 aaaad
0aaaaf
1aaaap
b0 aaaar
b10001000100010001000100010001 aaaas

#757
0aaaaa
0aaaab

#758
1aaaaa
1aaaaf
b10001000100010001000100000000 aaaag
0aaaap

#759
0aaaaa

#760
1aaaaa
1aaaab
b10011001100110011001100110011001 aaaac
b10010 aaaad
1aaaae
0aaaaf

#761
0aaaaa
0aaaab

#762
1aaaaa

#763
0aaaaa

#764
1aaaaa

#765
0aaaaa

#766
1aaaaa

#767
0aaaaa

#768
1aaaaa

#769
0aaaaa

#770
1aaaaa

#771
0aaaaa

#772
1aaaaa

#773
0aaaaa

#774
1aaaaa

#775
0aaaaa

#776
1aaaaa
1aaaap
b100 aaaar
b10001 aaaas

#777
0aaaaa

#778
1aaaaa
0aaaap

#779
0aaaaa

#780
1aaaaa

#781
0aaaaa

#782
1aaaaa

#783
0aaaaa

#784
1aaaaa

#785
0aaaaa

#786
1aaaaa

#787
0aaaaa

#788
1aaaaa

#789
0aaaaa

#790
1aaaaa

#791
0aaaaa

#792
1aaaaa

#793
0aaaaa

#794
1aaaaa

#795
0aaaaa

#796
1aaaaa
1aaaap
b1000 aaaar
b0 aaaas

#797
0aaaaa

#798
1aaaaa
0aaaap

#799
0aaaaa

#800
1aaaaa

#801
0aaaaa

#802
1aaaaa

#803
0aaaaa

#804
1aaaaa

#805
0aaaaa

#806
1aaaaa

#807
0aaaaa

#808
1aaaaa

#809
0aaaaa

#810
1aaaaa

#811
0aaaaa

#812
1aaaaa

#813
0aaaaa

#814
1aaaaa

#815
0aaaaa

#816
1aaaaa
1aaaap
b1100 aaaar

#817
0aaaaa

#818
1aaaaa
0aaaap

#819
0aaaaa

#820
1aaaaa
1aaaah

#821
0aaaaa

#822
1aaaaa
0aaaah
1aaaaj
b1 aaaak
b10010 aaaal

#823
0aaaaa

#824
1aaaaa
0aaaaj

#825
0aaaaa

#826
1aaaaa
1aaaaf

#827
0aaaaa

#828
1aaaaa
1aaaab
b10001000100010001000100010001 aaaac
b10000 aaaad
0aaaaf

#829
0aaaaa
0aaaab

#830
1aaaaa

#831
0aaaaa

#832
1aaaaa

#833
0aaaaa

#834
1aaaaa

#835
0aaaaa

#836
1aaaaa
1aaaap
b10000 aaaar
b10011001100110010010001000100010 aaaas

#837
0aaaaa

#838
1aaaaa
0aaaap

#839
0aaaaa

#840
1aaaaa

#841
0aaaaa

#842
1aaaaa

#843
0aaaaa

#844
1aaaaa

#845
0aaaaa

#846
1aaaaa

#847
0aaaaa

#848
1aaaaa

#849
0aaaaa

#850
1aaaaa

#851
0aaaaa

#852
1aaaaa

#853
0aaaaa

#854
1aaaaa

#855
0aaaaa

#856
1aaaaa
1aaaap
b10100 aaaar
b1000101001100110011001 aaaas

#857
0aaaaa

#858
1aaaaa
0aaaap

#859
0aaaaa

#860
1aaaaa

#861
0aaaaa

#862
1aaaaa

#863
0aaaaa

#864
1aaaaa

#865
0aaaaa

#866
1aaaaa

#867
0aaaaa

#868
1aaaaa

#869
0aaaaa

#870
1aaaaa

#871
0aaaaa

#872
1aaaaa

#873
0aaaaa

#874
1aaaaa

#875
0aaaaa

#876
1aaaaa
1aaaap
b11000 aaaar
b0 aaaas

#877
0aaaaa

#878
1aaaaa
0aaaap

#879
0aaaaa

#880
1aaaaa

#881
0aaaaa

#882
1aaaaa

#883
0aaaaa

#884
1aaaaa

#885
0aaaaa

#886
1aaaaa

#887
0aaaaa

#888
1aaaaa

#889
0aaaaa

#890
1aaaaa

#891
0aaaaa

#892
1aaaaa

#893
0aaaaa

#894
1aaaaa

#895
0aaaaa

#896
1aaaaa
1aaaap
b11100 aaaar

#897
0aaaaa

#898
1aaaaa
0aaaap

#899
0aaaaa

#900
1aaaaa
1aaaah

#901
0aaaaa

#902
1aaaaa
0aaaah
1aaaaj
b10000 aaaal

#903
0aaaaa

#904
1aaaaa
0aaaaj

#905
0aaaaa

#906
1aaaaa
1aaaaf

#907
0aaaaa

#908
1aaaaa
1aaaab
b1100110011001100110011001100110 aaaac
b10011 aaaad
0aaaaf

#909
0aaaaa
0aaaab

#910
1aaaaa

#911
0aaaaa

#912
1aaaaa

#913
0aaaaa

#914
1aaaaa

#915
0aaaaa

#916
1aaaaa
1aaaap
b10000 aaaar
b10001000100010001000100010001 aaaas

#917
0aaaaa

#918
1aaaaa
0aaaap

#919
0aaaaa

#920
1aaaaa

#921
0aaaaa

#922
1aaaaa

#923
0aaaaa

#924
1aaaaa

#925
0aaaaa

#926
1aaaaa

#927
0aaaaa

#928
1aaaaa

#929
0aaaaa

#930
1aaaaa

#931
0aaaaa

#932
1aaaaa

#933
0aaaaa

#934
1aaaaa

#935
0aaaaa

#936
1aaaaa
1aaaap
b10100 aaaar
b1000101001100110011001 aaaas

#937
0aaaaa

#938
1aaaaa
0aaaap

#939
0aaaaa

#940
1aaaaa

#941
0aaaaa

#942
1aaaaa

#943
0aaaaa

#944
1aaaaa

#945
0aaaaa

#946
1aaaaa

#947
0aaaaa

#948
1aaaaa

#949
0aaaaa

#950
1aaaaa

#951
0aaaaa

#952
1aaaaa

#953
0aaaaa

#954
1aaaaa

#955
0aaaaa

#956
1aaaaa
1aaaap
b11000 aaaar
b0 aaaas

#957
0aaaaa

#958
1aaaaa
0aaaap

#959
0aaaaa

#960
1aaaaa

#961
0aaaaa

#962
1aaaaa

#963
0aaaaa

#964
1aaaaa

#965
0aaaaa

#966
1aaaaa

#967
0aaaaa

#968
1aaaaa

#969
0aaaaa

#970
1aaaaa

#971
0aaaaa

#972
1aaaaa

#973
0aaaaa

#974
1aaaaa

#975
0aaaaa

#976
1aaaaa
1aaaap
b11100 aaaar

#977
0aaaaa

#978
1aaaaa
0aaaap

#979
0aaaaa

#980
1aaaaa
1aaaah

#981
0aaaaa

#982
1aaaaa
0aaaah
1aaaaj
b10011 aaaal

#983
0aaaaa

#984
1aaaaa
0aaaaj

#985
0aaaaa

#986
1aaaaa
1aaaaf

#987
0aaaaa

#988
1aaaaa
1aaaab
b10001000100010001000100010001 aaaac
b100010 aaaad
0aaaaf

#989
0aaaaa
0aaaab

#990
1aaaaa

#991
0aaaaa

#992
1aaaaa

#993
0aaaaa

#994
1aaaaa

#995
0aaaaa

#996
1aaaaa
1aaaap
b10000 aaaar
b1100110000100010001000100010001 aaaas

#997
0aaaaa

#998
1aaaaa
0aaaap

#999
0aaaaa

#1000
1aaaaa

#1001
0aaaaa

#1002
1aaaaa

#1003
0aaaaa

#1004
1aaaaa

#1005
0aaaaa

#1006
1aaaaa

#1007
0aaaaa

#1008
1aaaaa

#1009
0aaaaa

#1010
1aaaaa

#1011
0aaaaa

#1012
1aaaaa

#1013
0aaaaa

#1014
1aaaaa

#1015
0aaaaa

#1016
1aaaaa
1aaaap
b10100 aaaar
b11001100110011001100110 aaaas

#1017
0aaaaa

#1018
1aaaaa
0aaaap

#1019
0aaaaa

#1020
1aaaaa

#1021
0aaaaa

#1022
1aaaaa

#1023
0aaaaa

#1024
1aaaaa

#1025
0aaaaa

#1026
1aaaaa

#1027
0aaaaa

#1028
1aaaaa

#1029
0aaaaa

#1030
1aaaaa

#1031
0aaaaa

#1032
1aaaaa

#1033
0aaaaa

#1034
1aaaaa

#1035
0aaaaa

#1036
1aaaaa
1aaaap
b11000 aaaar
b0 aaaas

#1037
0aaaaa

#1038
1aaaaa
0aaaap

#1039
0aaaaa

#1040
1aaaaa

#1041
0aaaaa

#1042
1aaaaa

#1043
0aaaaa

#1044
1aaaaa

#1045
0aaaaa

#1046
1aaaaa

#1047
0aaaaa

#1048
1aaaaa

#1049
0aaaaa

#1050
1aaaaa

#1051
0aaaaa

#1052
1aaaaa

#1053
0aaaaa

#1054
1aaaaa

#1055
0aaaaa

#1056
1aaaaa
1aaaap
b11100 aaaar

#1057
0aaaaa

#1058
1aaaaa
0aaaap

#1059
0aaaaa

#1060
1aaaaa
1aaaah

#1061
0aaaaa

#1062
1aaaaa
0aaaah
1aaaaj
b10 aaaak
b100010 aaaal

#1063
0aaaaa

#1064
1aaaaa
0aaaaj

#1065
0aaaaa

#1066
1aaaaa
1aaaaf

#1067
0aaaaa

#1068
1aaaaa
1aaaab
b0 aaaac
b100001 aaaad
0aaaae
0aaaaf

#1069
0aaaaa
0aaaab

#1070
1aaaaa
1aaaaf
b1000100000100010001000100010001 aaaag

#1071
0aaaaa

#1072
1aaaaa
1aaaab
b1100110011001100110011001100110 aaaac
b10011 aaaad
1aaaae
0aaaaf

#1073
0aaaaa
0aaaab

#1074
1aaaaa

#1075
0aaaaa

#1076
1aaaaa
1aaaap
b100000 aaaar
b10001000100010100010000110011 aaaas

#1077
0aaaaa

#1078
1aaaaa
0aaaap

#1079
0aaaaa

#1080
1aaaaa

#1081
0aaaaa

#1082
1aaaaa

#1083
0aaaaa

#1084
1aaaaa

#1085
0aaaaa

#1086
1aaaaa

#1087
0aaaaa

#1088
1aaaaa

#1089
0aaaaa

#1090
1aaaaa

#1091
0aaaaa

#1092
1aaaaa

#1093
0aaaaa

#1094
1aaaaa

#1095
0aaaaa

#1096
1aaaaa
1aaaap
b100100 aaaar
b100110010001000100010001 aaaas

#1097
0aaaaa

#1098
1aaaaa
0aaaap

#1099
0aaaaa

#1100
1aaaaa

#1101
0aaaaa

#1102
1aaaaa

#1103
0aaaaa

